1. Summary
Meeting title	AWS Glue Catalog + Athena
Attended participants	7
Start time	6/22/22, 10:31:30 AM
End time	6/22/22, 12:02:26 PM
Meeting duration	1h 30m 56s
Average attendance time	1h 29m 37s

2. Participants
Name	First join	Last leave	In-meeting duration	Email	Participant ID (UPN)	Role
Maria Marquina Guevara	6/22/22, 10:31:40 AM	6/22/22, 12:02:25 PM	1h 29m 41s	Maria.Marquina@fundacion-jala.org	Maria.Marquina@fundacion-jala.org	Organizer
Leonardo Villalba Ferrer	6/22/22, 10:31:41 AM	6/22/22, 12:02:19 PM	1h 30m 38s	Leonardo.Villalba@jala-foundation.org	Leonardo.Villalba@jala-foundation.org	Presenter
Luis Becerra Vazquez	6/22/22, 10:31:49 AM	6/22/22, 12:02:26 PM	1h 30m 36s	Luis.Becerra@jala-foundation.org	Luis.Becerra@jala-foundation.org	Presenter
Martin Gonzalez Torrilla	6/22/22, 10:31:57 AM	6/22/22, 11:58:21 AM	1h 26m 23s	Martin.Gonzalez@jala-foundation.org	Martin.Gonzalez@jala-foundation.org	Presenter
Kevin Cardenas Rodriguez	6/22/22, 10:31:59 AM	6/22/22, 12:02:25 PM	1h 30m 26s	Kevin.Cardenas@jala-foundation.org	Kevin.Cardenas@jala-foundation.org	Presenter
Joaquin Aman Alvarez	6/22/22, 10:32:32 AM	6/22/22, 12:02:19 PM	1h 29m 47s	Joaquin.Aman@jala-foundation.org	Joaquin.Aman@jala-foundation.org	Presenter
Martin Pavesio Sabini	6/22/22, 10:32:36 AM	6/22/22, 12:02:26 PM	1h 29m 49s	Martin.Pavesio@jala-foundation.org	Martin.Pavesio@jala-foundation.org	Presenter

3. In-Meeting activities
Name	Join time	Leave time	Duration	Email	Role
Maria Marquina Guevara	6/22/22, 10:31:40 AM	6/22/22, 10:33:29 AM	1m 48s	Maria.Marquina@fundacion-jala.org	Organizer
Maria Marquina Guevara	6/22/22, 10:34:31 AM	6/22/22, 12:02:25 PM	1h 27m 53s	Maria.Marquina@fundacion-jala.org	Organizer
Leonardo Villalba Ferrer	6/22/22, 10:31:41 AM	6/22/22, 12:02:19 PM	1h 30m 38s	Leonardo.Villalba@jala-foundation.org	Presenter
Luis Becerra Vazquez	6/22/22, 10:31:49 AM	6/22/22, 12:02:26 PM	1h 30m 36s	Luis.Becerra@jala-foundation.org	Presenter
Martin Gonzalez Torrilla	6/22/22, 10:31:57 AM	6/22/22, 11:58:21 AM	1h 26m 23s	Martin.Gonzalez@jala-foundation.org	Presenter
Kevin Cardenas Rodriguez	6/22/22, 10:31:59 AM	6/22/22, 12:02:25 PM	1h 30m 26s	Kevin.Cardenas@jala-foundation.org	Presenter
Joaquin Aman Alvarez	6/22/22, 10:32:32 AM	6/22/22, 12:02:19 PM	1h 29m 47s	Joaquin.Aman@jala-foundation.org	Presenter
Martin Pavesio Sabini	6/22/22, 10:32:36 AM	6/22/22, 12:02:26 PM	1h 29m 49s	Martin.Pavesio@jala-foundation.org	Presenter
