1. Summary
Meeting title	DB
Attended participants	9
Start time	10/14/22, 8:29:59 AM
End time	10/14/22, 10:12:03 AM
Meeting duration	1h 42m 4s
Average attendance time	1h 37m 22s

2. Participants
Name	First join	Last leave	In-meeting duration	Email	Participant ID (UPN)	Role
Diego Jauregui Salvatierra	10/14/22, 8:30:04 AM	10/14/22, 10:12:01 AM	1h 41m 57s	Diego.Jauregui@jala.university	Diego.Jauregui@jala.university	Presenter
Camilo Villalba Sanz	10/14/22, 8:30:26 AM	10/14/22, 10:11:58 AM	1h 41m 32s	Camilo.Villalba@jala.university	Camilo.Villalba@jala.university	Presenter
Maria Marquina Guevara	10/14/22, 8:30:35 AM	10/14/22, 10:11:56 AM	1h 41m 20s	Maria.Marquina@jala.university	Maria.Marquina@jala.university	Organizer
Adrian Clavijo Lopez	10/14/22, 8:30:55 AM	10/14/22, 10:11:57 AM	1h 41m 2s	Adrian.Clavijo@jala.university	Adrian.Clavijo@jala.university	Presenter
Sergio Mallea Morales	10/14/22, 8:31:45 AM	10/14/22, 10:12:03 AM	1h 40m 17s	Sergio.Mallea@jala.university	Sergio.Mallea@jala.university	Presenter
Martin Ferreyra	10/14/22, 8:35:07 AM	10/14/22, 10:12:02 AM	1h 36m 54s	Martin.Ferreyra@jala.university	Martin.Ferreyra@jala.university	Presenter
Andres Galvis Bolivar	10/14/22, 8:36:54 AM	10/14/22, 10:11:59 AM	1h 33m 30s	Andres.Galvis@jala.university	Andres.Galvis@jala.university	Presenter
Jesus Vallecilla Solano	10/14/22, 8:41:10 AM	10/14/22, 10:12:02 AM	1h 30m 51s	Jesus.Vallecilla@jala.university	Jesus.Vallecilla@jala.university	Presenter
Jason Pineda Serna	10/14/22, 8:43:05 AM	10/14/22, 10:11:57 AM	1h 28m 52s	Jason.Pineda@jala.university	Jason.Pineda@jala.university	Presenter

3. In-Meeting activities
Name	Join time	Leave time	Duration	Email	Role
Diego Jauregui Salvatierra	10/14/22, 8:30:04 AM	10/14/22, 10:12:01 AM	1h 41m 57s	Diego.Jauregui@jala.university	Presenter
Camilo Villalba Sanz	10/14/22, 8:30:26 AM	10/14/22, 10:11:58 AM	1h 41m 32s	Camilo.Villalba@jala.university	Presenter
Maria Marquina Guevara	10/14/22, 8:30:35 AM	10/14/22, 10:11:56 AM	1h 41m 20s	Maria.Marquina@jala.university	Organizer
Adrian Clavijo Lopez	10/14/22, 8:30:55 AM	10/14/22, 10:11:57 AM	1h 41m 2s	Adrian.Clavijo@jala.university	Presenter
Sergio Mallea Morales	10/14/22, 8:31:45 AM	10/14/22, 10:12:03 AM	1h 40m 17s	Sergio.Mallea@jala.university	Presenter
Martin Ferreyra	10/14/22, 8:35:07 AM	10/14/22, 10:12:02 AM	1h 36m 54s	Martin.Ferreyra@jala.university	Presenter
Andres Galvis Bolivar	10/14/22, 8:36:54 AM	10/14/22, 8:42:51 AM	5m 56s	Andres.Galvis@jala.university	Presenter
Andres Galvis Bolivar	10/14/22, 8:44:24 AM	10/14/22, 10:11:59 AM	1h 27m 34s	Andres.Galvis@jala.university	Presenter
Jesus Vallecilla Solano	10/14/22, 8:41:10 AM	10/14/22, 10:12:02 AM	1h 30m 51s	Jesus.Vallecilla@jala.university	Presenter
Jason Pineda Serna	10/14/22, 8:43:05 AM	10/14/22, 10:11:57 AM	1h 28m 52s	Jason.Pineda@jala.university	Presenter
